<svg width="18" height="18" viewBox="0 0 18 18" fill="none" xmlns="http://www.w3.org/2000/svg">
<path d="M8.99974 17.125C9.91641 17.125 10.6664 16.375 10.6664 15.4583H7.33307C7.33307 16.375 8.08307 17.125 8.99974 17.125ZM13.9997 12.125V7.95833C13.9997 5.4 12.6414 3.25833 10.2497 2.69167V2.125C10.2497 1.43333 9.69141 0.875 8.99974 0.875C8.30807 0.875 7.74974 1.43333 7.74974 2.125V2.69167C5.36641 3.25833 3.99974 5.39167 3.99974 7.95833V12.125L2.33307 13.7917V14.625H15.6664V13.7917L13.9997 12.125ZM12.3331 12.9583H5.66641V7.95833C5.66641 5.89167 6.92474 4.20833 8.99974 4.20833C11.0747 4.20833 12.3331 5.89167 12.3331 7.95833V12.9583ZM5.31641 2.19167L4.12474 1C2.12474 2.525 0.808073 4.875 0.691406 7.54167H2.35807C2.48307 5.33333 3.61641 3.4 5.31641 2.19167ZM15.6414 7.54167H17.3081C17.1831 4.875 15.8664 2.525 13.8747 1L12.6914 2.19167C14.3747 3.4 15.5164 5.33333 15.6414 7.54167Z" fill="#757779"/>
</svg>
