<svg width="16" height="15" viewBox="0 0 16 15" fill="none" xmlns="http://www.w3.org/2000/svg">
<path d="M13.8333 0H2.16667C1.25 0 0.5 0.75 0.5 1.66667V13.3333C0.5 14.25 1.25 15 2.16667 15H13.8333C14.75 15 15.5 14.25 15.5 13.3333V1.66667C15.5 0.75 14.75 0 13.8333 0ZM13.8333 13.3333H2.16667V9.51667L2.99167 10.3417L6.325 7.00833L9.65833 10.3417L12.9917 7.01667L13.8333 7.85833V13.3333ZM13.8333 5.49167L12.9917 4.65L9.65833 7.99167L6.325 4.65833L2.99167 7.99167L2.16667 7.15833V1.66667H13.8333V5.49167Z" fill="#333333"/>
</svg>
