<svg width="16" height="17" viewBox="0 0 16 17" fill="none" xmlns="http://www.w3.org/2000/svg">
<rect x="0.5" y="1" width="15" height="15" rx="7.5" fill="#3CD3AD"/>
<path d="M6.8892 9.86222V9.76989C6.89157 9.34138 6.93182 9.00047 7.00994 8.74716C7.09044 8.49384 7.20407 8.29025 7.35085 8.13636C7.49763 7.98011 7.67637 7.83688 7.88707 7.70668C8.03149 7.61671 8.16051 7.51847 8.27415 7.41193C8.39015 7.30303 8.4813 7.18229 8.54759 7.04972C8.61387 6.91477 8.64702 6.76444 8.64702 6.59872C8.64702 6.4117 8.60322 6.24953 8.51562 6.11222C8.42803 5.97491 8.30966 5.86837 8.16051 5.79261C8.01373 5.71686 7.8492 5.67898 7.6669 5.67898C7.49882 5.67898 7.33902 5.71567 7.1875 5.78906C7.03835 5.86009 6.91406 5.96899 6.81463 6.11577C6.71757 6.26018 6.66312 6.44366 6.65128 6.66619H5.38707C5.39891 6.21638 5.50781 5.83996 5.71378 5.53693C5.92211 5.2339 6.19673 5.00663 6.53764 4.85511C6.88092 4.7036 7.25971 4.62784 7.67401 4.62784C8.12618 4.62784 8.52391 4.70715 8.86719 4.86577C9.21283 5.02438 9.48153 5.25047 9.6733 5.54403C9.86742 5.83523 9.96449 6.18087 9.96449 6.58097C9.96449 6.85085 9.92069 7.09233 9.8331 7.3054C9.74787 7.51847 9.62595 7.70786 9.46733 7.87358C9.30871 8.0393 9.1205 8.18726 8.9027 8.31747C8.71094 8.43584 8.5535 8.55895 8.4304 8.68679C8.30966 8.81463 8.2197 8.96496 8.16051 9.13778C8.10369 9.30824 8.0741 9.51894 8.07173 9.76989V9.86222H6.8892ZM7.5071 12.0781C7.29403 12.0781 7.11056 12.0024 6.95668 11.8509C6.80279 11.6993 6.72585 11.5147 6.72585 11.2969C6.72585 11.0838 6.80279 10.9015 6.95668 10.75C7.11056 10.5985 7.29403 10.5227 7.5071 10.5227C7.7178 10.5227 7.90009 10.5985 8.05398 10.75C8.21023 10.9015 8.28835 11.0838 8.28835 11.2969C8.28835 11.4413 8.25166 11.5727 8.17827 11.6911C8.10724 11.8094 8.01255 11.9041 7.89418 11.9751C7.77817 12.0438 7.64915 12.0781 7.5071 12.0781Z" fill="white"/>
<rect x="0.5" y="1" width="15" height="15" rx="7.5" stroke="white"/>
</svg>
