<svg width="19" height="18" viewBox="0 0 19 18" fill="none" xmlns="http://www.w3.org/2000/svg">
<path d="M9.37596 0.666504C4.37293 0.666504 0.3125 4.39984 0.3125 8.99984C0.3125 13.5998 4.37293 17.3332 9.37596 17.3332C14.379 17.3332 18.4394 13.5998 18.4394 8.99984C18.4394 4.39984 14.379 0.666504 9.37596 0.666504ZM9.37596 15.6665C5.37898 15.6665 2.12519 12.6748 2.12519 8.99984C2.12519 5.32484 5.37898 2.33317 9.37596 2.33317C13.3729 2.33317 16.6267 5.32484 16.6267 8.99984C16.6267 12.6748 13.3729 15.6665 9.37596 15.6665ZM9.65693 8.28317C8.0527 7.90817 7.53608 7.49984 7.53608 6.8915C7.53608 6.1915 8.25209 5.69984 9.43941 5.69984C10.6902 5.69984 11.1615 6.24984 11.1977 7.0665H12.7476C12.7023 5.94984 11.959 4.92484 10.4908 4.5915V3.1665H8.37898V4.57484C7.0104 4.8415 5.91372 5.65817 5.91372 6.9165C5.91372 8.40817 7.26417 9.15817 9.23095 9.5915C10.9983 9.97484 11.3518 10.5498 11.3518 11.1498C11.3518 11.5915 10.9983 12.3082 9.44847 12.3082C7.99832 12.3082 7.42732 11.7082 7.34575 10.9415H5.78683C5.87747 12.3582 7.01946 13.1582 8.37898 13.4165V14.8332H10.4998V13.4415C11.8775 13.1998 12.9651 12.4748 12.9742 11.1332C12.9651 9.29984 11.2521 8.6665 9.65693 8.28317Z" fill="#757779"/>
</svg>
