<svg width="16" height="16" viewBox="0 0 16 16" fill="none" xmlns="http://www.w3.org/2000/svg">
<rect width="16" height="16" rx="8" fill="#E7625C"/>
<path d="M8 6.944C8.56 6.944 9.016 7.4 9.016 7.96C9.016 8.528 8.56 8.984 8 8.984C7.432 8.984 6.976 8.528 6.976 7.96C6.976 7.4 7.432 6.944 8 6.944Z" fill="white"/>
</svg>
